03/28/17 17:00

arma_likelihood() (4 points):
Score += 4

arma_fit() (4 points):
Score += 4

arma_forecast() (4 points):
Something funky is going on with Time Series B...
Score += 3

Code Quality (3 points):
Score += 3

Total score: 14/15 = 93.33%

Great job!

--------------------------------------------------------------------------------

